Strings: Extra Practice (Part 3)
…
What words in stringr::words have the highest number of vowels? What words have the highest proportion of vowels? (Hint: what is the denominator?) Figure this out using the tidyverse and piping, starting with as_tibble(words) |>.

as_tibble(words) |>
  mutate(num_vowels = str_count(value, "[aeiou]")) |>
  arrange(desc(num_vowels))

# A tibble: 980 × 2
   value       num_vowels
   <chr>            <int>
 1 appropriate          5
 2 associate            5
 3 available            5
 4 colleague            5
 5 encourage            5
 6 experience           5
 7 individual           5
 8 television           5
 9 absolute             4
10 achieve              4
# ℹ 970 more rows

as_tibble(words) |>
  mutate(num_vowels = str_count(value, "[aeiou]"),
         prop_vowels = num_vowels/str_length(value)) |>
  arrange(desc(prop_vowels))

# A tibble: 980 × 3
   value  num_vowels prop_vowels
   <chr>       <int>       <dbl>
 1 a               1       1    
 2 area            3       0.75 
 3 idea            3       0.75 
 4 age             2       0.667
 5 ago             2       0.667
 6 air             2       0.667
 7 die             2       0.667
 8 due             2       0.667
 9 eat             2       0.667
10 europe          4       0.667
# ℹ 970 more rows

The words with the most values in words have 5 values; these words are as follows: appropriate, associate, available, colleague, encourage, experience, individual, and television. The word with the highest proportion of values is “a”, which has a proportion of 1. The next two words have a proportion of 0.75, those words being “area” and “idea”.

From the Harvard sentences data, use str_extract to produce a tibble with 3 columns: the sentence, the first word in the sentence, and the first word ending in “ed” (NA if there isn’t one).

as_tibble(sentences) |>
  mutate(first_word = str_extract(value, "\\b[^ ]+\\b"),
         first_ed = str_extract(value, "\\b[^ ]+ed\\b"))

# A tibble: 720 × 3
   value                                       first_word first_ed
   <chr>                                       <chr>      <chr>   
 1 The birch canoe slid on the smooth planks.  The        <NA>    
 2 Glue the sheet to the dark blue background. Glue       <NA>    
 3 It's easy to tell the depth of a well.      It's       <NA>    
 4 These days a chicken leg is a rare dish.    These      <NA>    
 5 Rice is often served in round bowls.        Rice       served  
 6 The juice of lemons makes fine punch.       The        <NA>    
 7 The box was thrown beside the parked truck. The        parked  
 8 The hogs were fed chopped corn and garbage. The        fed     
 9 Four hours of steady work faced us.         Four       faced   
10 A large size in stockings is hard to sell.  A          <NA>    
# ℹ 710 more rows
…
